<!DOCTYPE svg PUBLIC "-//W3C//DTD SVG 20010904//EN" "http://www.w3.org/TR/2001/REC-SVG-20010904/DTD/svg10.dtd">
<svg version="1.0" xmlns="http://www.w3.org/2000/svg" width="500px" height="500px" viewBox="0 0 5000 5000" preserveAspectRatio="xMidYMid meet">
<g id="layer101" fill="#c6302c" stroke="none">
 <path d="M2212 4484 c-440 -70 -837 -272 -1136 -578 -476 -487 -671 -1152 -535 -1821 80 -390 311 -796 600 -1055 397 -356 846 -530 1367 -530 671 0 1298 339 1664 900 336 514 420 1152 228 1730 -100 298 -262 560 -488 788 -282 283 -649 476 -1057 554 -146 28 -503 35 -643 12z m-65 -1196 l353 -353 353 353 c193 193 357 352 362 352 13 0 425 -412 425 -425 0 -5 -159 -169 -352 -362 l-353 -353 353 -353 c193 -193 352 -357 352 -362 0 -13 -412 -425 -425 -425 -5 0 -169 159 -362 352 l-353 353 -353 -353 c-193 -193 -357 -352 -362 -352 -13 0 -425 412 -425 425 0 5 159 169 352 362 l353 353 -353 353 c-193 193 -352 357 -352 362 0 13 412 425 425 425 5 0 169 -159 362 -352z"/>
 </g>

</svg>